…
``` r
city_summary = 
  homicide_df %>%
  group_by(city) %>%
  summarize(
    unsolved = sum(resolved == "unsolved"),
    solved = sum(resolved == "solved"),
    total = n()
    )

city_summary
```

    ## # A tibble: 50 × 4
    ##    city        unsolved solved total
    ##    <chr>          <int>  <int> <int>
    ##  1 Albuquerque      146    232   378
    ##  2 Atlanta          373    600   973
    ##  3 Baltimore       1825   1002  2827
    ##  4 Baton Rouge      196    228   424
    ##  5 Birmingham       347    453   800
    ##  6 Boston           310    304   614
    ##  7 Buffalo          319    202   521
    ##  8 Charlotte        206    481   687
    ##  9 Chicago         4073   1462  5535
    ## 10 Cincinnati       309    385   694
    ## # … with 40 more rows
…
city_df
```

    ## # A tibble: 51 × 4
    ##    city_state      estimate conf.low conf.high
    ##    <chr>              <dbl>    <dbl>     <dbl>
    ##  1 Albuquerque, NM    0.386    0.337     0.438
    ##  2 Atlanta, GA        0.383    0.353     0.415
    ##  3 Baltimore, MD      0.646    0.628     0.663
    ##  4 Baton Rouge, LA    0.462    0.414     0.511
    ##  5 Birmingham, AL     0.434    0.399     0.469
    ##  6 Boston, MA         0.505    0.465     0.545
    ##  7 Buffalo, NY        0.612    0.569     0.654
    ##  8 Charlotte, NC      0.300    0.266     0.336
    ##  9 Chicago, IL        0.736    0.724     0.747
    ## 10 Cincinnati, OH     0.445    0.408     0.483
    ## # … with 41 more rows
…
